no_voie,nom_voie,code_google,latitude,longitude,date_photo,url_photo,source,description
310,Rue de pommessargues,JW96+XP Montpellier,43.62,3.911861,15/11/18,https://pbs.twimg.com/media/DsDzCIsXgAEqYx6.jpg,@thiours,
,Léonard de Vinci,JW54+CH Montpellier,43.608528,3.906389,15/11/18,https://pbs.twimg.com/media/DsDy-lMXQAMMRR_.jpg,@thiours,
17,av. de Nîmes,JV8M+7H Montpellier,43.615694,3.883889,15/11/18,https://pbs.twimg.com/media/DsDzBICWwAEJrtR.jpg,@thiours,
,Av. du mondial 98,JW33+6V Montpellier,43.603056,3.904694,15/11/18,https://pbs.twimg.com/media/DsDy_2mW4AEkXXp.jpg,@thiours,
108,av. de Lodève,JR6X+7R Montpellier,43.610628,3.849546,01/11/18,https://framavox.org/system/attachments/files/000/014/803/thread/IMG_20181104_123714b.jpg?1542448392,@fouziks,
,rue du Moulin des 7 cans / chemin de moulares,,,,12/11/18,https://pbs.twimg.com/media/Dr0jogIXcAAakKV.jpg:large,@kentiss,temporaire
,Pont Zuccarelli,JV2W+4F Montpellier,43.600343,3.896173,12/11/18,https://pbs.twimg.com/media/Dr0itEVWoAEcrtc.jpg,@kentiss,
,Pont Zuccarelli,JV2W+7Q Montpellier,43.60074,3.896995,12/11/18,https://pbs.twimg.com/media/Dr0iu1kXQAAcUN-.jpg,@kentiss,
,Pont Zuccarelli,JV2W+7X Montpellier,43.600681,3.897396,12/11/18,https://pbs.twimg.com/media/Dr0iwRpX4AA4vU_.jpg,@kentiss,
,rue du comté de Melgueil,JV3R+F8 Montpellier,43.603629,3.890873,11/11/18,https://pbs.twimg.com/media/DruEcCTWsAAXr8c.jpg,@kentiss,
,bvd strasbourg,JV3Q+FF Montpellier,43.60375,3.888702,10/11/18,https://pbs.twimg.com/media/DrpTr1tW4AABbbM.jpg,@kentiss,
37,rue barcelone,JV3P+MR Montpellier,43.604168,3.887108,10/11/18,https://pbs.twimg.com/media/DroWuIiW4AEgtXE.jpg:large,@kentiss,temporaire
